Copyright 1986-1999, 2001-2013 Xilinx, Inc. All Rights Reserved.
-----------------------------------------------------------------------------------
| Tool Version : Vivado v.2013.4 (lin64) Build 353583 Mon Dec  9 17:26:26 MST 2013
| Date         : Thu Jan  1 22:16:20 2015
| Host         : scrooge.sce.ntu.edu.sg running 64-bit Ubuntu 12.04.5 LTS
| Command      : report_timing -file ./report/hw_img_add_timing_synth.rpt
| Design       : hw_img_add
| Device       : 7z020-clg484
| Speed File   : -1  PRODUCTION 1.09 2013-11-22
-----------------------------------------------------------------------------------

Timing Report

Slack (MET) :             0.041ns  (required time - arrival time)
  Source:                 grp_AddWeighted_1080_1920_0_0_0_double_s_fu_231/hw_img_add_dadd_64ns_64ns_64_5_full_dsp_U12/hw_img_add_ap_dadd_3_full_dsp_u/U0/i_synth/ADDSUB_OP.ADDSUB/SPEED_OP.LOGIC.OP/ALIGN_BLK/FRAC_ADDSUB/DSP_ADD.FRAC_ADDSUB/LOGIC_ADD.ADD_1/Q_DEL/i_pipe/opt_has_pipe.first_q_reg[3]/C
                            (rising edge-triggered cell FDRE clocked by CLK  {rise@0.000ns fall@5.000ns period=10.000ns})
  Destination:            grp_AddWeighted_1080_1920_0_0_0_double_s_fu_231/hw_img_add_dadd_64ns_64ns_64_5_full_dsp_U12/hw_img_add_ap_dadd_3_full_dsp_u/U0/i_synth/ADDSUB_OP.ADDSUB/SPEED_OP.LOGIC.OP/NORM/NORM_SHIFT/MUX_LOOP[2].DEL_SHIFT/i_pipe/opt_has_pipe.first_q_reg[51]/D
                            (rising edge-triggered cell FDRE clocked by CLK  {rise@0.000ns fall@5.000ns period=10.000ns})
  Path Group:             CLK
  Path Type:              Setup (Max at Slow Process Corner)
  Requirement:            10.000ns  (CLK rise@10.000ns - CLK rise@0.000ns)
  Data Path Delay:        9.734ns  (logic 2.988ns (30.697%)  route 6.746ns (69.303%))
  Logic Levels:           9  (CARRY4=2 LUT3=1 LUT5=3 LUT6=3)
  Clock Path Skew:        -0.174ns (DCD - SCD + CPR)
    Destination Clock Delay (DCD):    1.563ns = ( 11.563 - 10.000 ) 
    Source Clock Delay      (SCD):    1.737ns
    Clock Pessimism Removal (CPR):    0.000ns
  Clock Uncertainty:      0.035ns  ((TSJ^2 + TIJ^2)^1/2 + DJ) / 2 + PE
    Total System Jitter     (TSJ):    0.071ns
    Total Input Jitter      (TIJ):    0.000ns
    Discrete Jitter          (DJ):    0.000ns
    Phase Error              (PE):    0.000ns

    Location             Delay type                Incr(ns)  Path(ns)    Netlist Resource(s)
  -------------------------------------------------------------------    -------------------
                         (clock CLK rise edge)        0.000     0.000 r  
                                                      0.000     0.000 r  ap_clk
                         net (fo=2733, unset)         1.737     1.737    grp_AddWeighted_1080_1920_0_0_0_double_s_fu_231/hw_img_add_dadd_64ns_64ns_64_5_full_dsp_U12/hw_img_add_ap_dadd_3_full_dsp_u/U0/i_synth/aclk
                                                                      r  grp_AddWeighted_1080_1920_0_0_0_double_s_fu_231/hw_img_add_dadd_64ns_64ns_64_5_full_dsp_U12/hw_img_add_ap_dadd_3_full_dsp_u/U0/i_synth/ADDSUB_OP.ADDSUB/SPEED_OP.LOGIC.OP/ALIGN_BLK/FRAC_ADDSUB/DSP_ADD.FRAC_ADDSUB/LOGIC_ADD.ADD_1/Q_DEL/i_pipe/opt_has_pipe.first_q_reg[3]/C
  -------------------------------------------------------------------    -------------------
                         FDRE (Prop_fdre_C_Q)         0.518     2.255 f  grp_AddWeighted_1080_1920_0_0_0_double_s_fu_231/hw_img_add_dadd_64ns_64ns_64_5_full_dsp_U12/hw_img_add_ap_dadd_3_full_dsp_u/U0/i_synth/ADDSUB_OP.ADDSUB/SPEED_OP.LOGIC.OP/ALIGN_BLK/FRAC_ADDSUB/DSP_ADD.FRAC_ADDSUB/LOGIC_ADD.ADD_1/Q_DEL/i_pipe/opt_has_pipe.first_q_reg[3]/Q
                         net (fo=2, unplaced)         0.752     3.007    grp_AddWeighted_1080_1920_0_0_0_double_s_fu_231/hw_img_add_dadd_64ns_64ns_64_5_full_dsp_U12/hw_img_add_ap_dadd_3_full_dsp_u/U0/i_synth/ADDSUB_OP.ADDSUB/SPEED_OP.LOGIC.OP/ALIGN_BLK/FRAC_ADDSUB/DSP_ADD.FRAC_ADDSUB/LOGIC_ADD.ADD_1/Q_DEL/i_pipe/first_q[3]
                         LUT3 (Prop_lut3_I0_O)        0.295     3.302 f  grp_AddWeighted_1080_1920_0_0_0_double_s_fu_231/hw_img_add_dadd_64ns_64ns_64_5_full_dsp_U12/hw_img_add_ap_dadd_3_full_dsp_u/U0/i_synth/CHAIN_GEN[1].C_MUX.CARRY_MUX_i_2__1/O
                         net (fo=4, unplaced)         0.978     4.280    grp_AddWeighted_1080_1920_0_0_0_double_s_fu_231/hw_img_add_dadd_64ns_64ns_64_5_full_dsp_U12/hw_img_add_ap_dadd_3_full_dsp_u/U0/i_synth/ADDSUB_OP.ADDSUB/SPEED_OP.LOGIC.OP/add_mant__0[50]
                         LUT6 (Prop_lut6_I0_O)        0.124     4.404 r  grp_AddWeighted_1080_1920_0_0_0_double_s_fu_231/hw_img_add_dadd_64ns_64ns_64_5_full_dsp_U12/hw_img_add_ap_dadd_3_full_dsp_u/U0/i_synth/CHAIN_GEN[1].C_MUX.CARRY_MUX_i_1__1/O
                         net (fo=1, unplaced)         0.000     4.404    grp_AddWeighted_1080_1920_0_0_0_double_s_fu_231/hw_img_add_dadd_64ns_64ns_64_5_full_dsp_U12/hw_img_add_ap_dadd_3_full_dsp_u/U0/i_synth/ADDSUB_OP.ADDSUB/SPEED_OP.LOGIC.OP/NORM/LZE/chunk_is_zero[1]
                         CARRY4 (Prop_carry4_S[1]_CO[3])
                                                      0.533     4.937 r  grp_AddWeighted_1080_1920_0_0_0_double_s_fu_231/hw_img_add_dadd_64ns_64ns_64_5_full_dsp_U12/hw_img_add_ap_dadd_3_full_dsp_u/U0/i_synth/ADDSUB_OP.ADDSUB/SPEED_OP.LOGIC.OP/NORM/LZE/ZERO_DET_CC_1/CHAIN_GEN[0].C_MUX.CARRY_MUX_CARRY4/CO[3]
                         net (fo=65, unplaced)        0.009     4.946    grp_AddWeighted_1080_1920_0_0_0_double_s_fu_231/hw_img_add_dadd_64ns_64ns_64_5_full_dsp_U12/hw_img_add_ap_dadd_3_full_dsp_u/U0/i_synth/ADDSUB_OP.ADDSUB/SPEED_OP.LOGIC.OP/NORM/LZE/p_1_in
                         CARRY4 (Prop_carry4_CI_CO[2])
                                                      0.252     5.198 f  grp_AddWeighted_1080_1920_0_0_0_double_s_fu_231/hw_img_add_dadd_64ns_64ns_64_5_full_dsp_U12/hw_img_add_ap_dadd_3_full_dsp_u/U0/i_synth/ADDSUB_OP.ADDSUB/SPEED_OP.LOGIC.OP/NORM/LZE/ZERO_DET_CC_1/CHAIN_GEN[4].C_MUX.CARRY_MUX_CARRY4/CO[2]
                         net (fo=1, unplaced)         0.905     6.103    grp_AddWeighted_1080_1920_0_0_0_double_s_fu_231/hw_img_add_dadd_64ns_64ns_64_5_full_dsp_U12/hw_img_add_ap_dadd_3_full_dsp_u/U0/i_synth/n_0_ADDSUB_OP.ADDSUB/SPEED_OP.LOGIC.OP/NORM/LZE/ZERO_DET_CC_1/CHAIN_GEN[6].C_MUX.CARRY_MUX
                         LUT6 (Prop_lut6_I3_O)        0.310     6.413 f  grp_AddWeighted_1080_1920_0_0_0_double_s_fu_231/hw_img_add_dadd_64ns_64ns_64_5_full_dsp_U12/hw_img_add_ap_dadd_3_full_dsp_u/U0/i_synth/opt_has_pipe.first_q[1]_i_2__0/O
                         net (fo=4, unplaced)         0.988     7.401    grp_AddWeighted_1080_1920_0_0_0_double_s_fu_231/hw_img_add_dadd_64ns_64ns_64_5_full_dsp_U12/hw_img_add_ap_dadd_3_full_dsp_u/U0/i_synth/n_0_opt_has_pipe.first_q[1]_i_2__0
                         LUT6 (Prop_lut6_I0_O)        0.124     7.525 f  grp_AddWeighted_1080_1920_0_0_0_double_s_fu_231/hw_img_add_dadd_64ns_64ns_64_5_full_dsp_U12/hw_img_add_ap_dadd_3_full_dsp_u/U0/i_synth/opt_has_pipe.first_q[1]_i_1__1/O
                         net (fo=57, unplaced)        1.050     8.575    grp_AddWeighted_1080_1920_0_0_0_double_s_fu_231/hw_img_add_dadd_64ns_64ns_64_5_full_dsp_U12/hw_img_add_ap_dadd_3_full_dsp_u/U0/i_synth/ADDSUB_OP.ADDSUB/SPEED_OP.LOGIC.OP/NORM/norm_dist_skew__0[2]
                         LUT5 (Prop_lut5_I0_O)        0.150     8.725 r  grp_AddWeighted_1080_1920_0_0_0_double_s_fu_231/hw_img_add_dadd_64ns_64ns_64_5_full_dsp_U12/hw_img_add_ap_dadd_3_full_dsp_u/U0/i_synth/opt_has_pipe.first_q[52]_i_4/O
                         net (fo=4, unplaced)         0.989     9.714    grp_AddWeighted_1080_1920_0_0_0_double_s_fu_231/hw_img_add_dadd_64ns_64ns_64_5_full_dsp_U12/hw_img_add_ap_dadd_3_full_dsp_u/U0/i_synth/n_0_opt_has_pipe.first_q[52]_i_4
                         LUT5 (Prop_lut5_I0_O)        0.354    10.068 r  grp_AddWeighted_1080_1920_0_0_0_double_s_fu_231/hw_img_add_dadd_64ns_64ns_64_5_full_dsp_U12/hw_img_add_ap_dadd_3_full_dsp_u/U0/i_synth/opt_has_pipe.first_q[51]_i_3/O
                         net (fo=1, unplaced)         0.741    10.809    grp_AddWeighted_1080_1920_0_0_0_double_s_fu_231/hw_img_add_dadd_64ns_64ns_64_5_full_dsp_U12/hw_img_add_ap_dadd_3_full_dsp_u/U0/i_synth/n_0_opt_has_pipe.first_q[51]_i_3
                         LUT5 (Prop_lut5_I2_O)        0.328    11.137 r  grp_AddWeighted_1080_1920_0_0_0_double_s_fu_231/hw_img_add_dadd_64ns_64ns_64_5_full_dsp_U12/hw_img_add_ap_dadd_3_full_dsp_u/U0/i_synth/opt_has_pipe.first_q[51]_i_1/O
                         net (fo=1, unplaced)         0.334    11.471    grp_AddWeighted_1080_1920_0_0_0_double_s_fu_231/hw_img_add_dadd_64ns_64ns_64_5_full_dsp_U12/hw_img_add_ap_dadd_3_full_dsp_u/U0/i_synth/ADDSUB_OP.ADDSUB/SPEED_OP.LOGIC.OP/NORM/p_0_in[51]
                         FDRE                                         r  grp_AddWeighted_1080_1920_0_0_0_double_s_fu_231/hw_img_add_dadd_64ns_64ns_64_5_full_dsp_U12/hw_img_add_ap_dadd_3_full_dsp_u/U0/i_synth/ADDSUB_OP.ADDSUB/SPEED_OP.LOGIC.OP/NORM/NORM_SHIFT/MUX_LOOP[2].DEL_SHIFT/i_pipe/opt_has_pipe.first_q_reg[51]/D
  -------------------------------------------------------------------    -------------------

                         (clock CLK rise edge)       10.000    10.000 r  
                                                      0.000    10.000 r  ap_clk
                         net (fo=2733, unset)         1.563    11.563    grp_AddWeighted_1080_1920_0_0_0_double_s_fu_231/hw_img_add_dadd_64ns_64ns_64_5_full_dsp_U12/hw_img_add_ap_dadd_3_full_dsp_u/U0/i_synth/aclk
                                                                      r  grp_AddWeighted_1080_1920_0_0_0_double_s_fu_231/hw_img_add_dadd_64ns_64ns_64_5_full_dsp_U12/hw_img_add_ap_dadd_3_full_dsp_u/U0/i_synth/ADDSUB_OP.ADDSUB/SPEED_OP.LOGIC.OP/NORM/NORM_SHIFT/MUX_LOOP[2].DEL_SHIFT/i_pipe/opt_has_pipe.first_q_reg[51]/C
                         clock pessimism              0.000    11.563    
                         clock uncertainty           -0.035    11.528    
                         FDRE (Setup_fdre_C_D)       -0.016    11.512    grp_AddWeighted_1080_1920_0_0_0_double_s_fu_231/hw_img_add_dadd_64ns_64ns_64_5_full_dsp_U12/hw_img_add_ap_dadd_3_full_dsp_u/U0/i_synth/ADDSUB_OP.ADDSUB/SPEED_OP.LOGIC.OP/NORM/NORM_SHIFT/MUX_LOOP[2].DEL_SHIFT/i_pipe/opt_has_pipe.first_q_reg[51]
  -------------------------------------------------------------------
                         required time                         11.512    
                         arrival time                         -11.471    
  -------------------------------------------------------------------
                         slack                                  0.041    




