Copyright 1986-1999, 2001-2013 Xilinx, Inc. All Rights Reserved.
-----------------------------------------------------------------------------------
| Tool Version : Vivado v.2013.4 (lin64) Build 353583 Mon Dec  9 17:26:26 MST 2013
| Date         : Thu Jan  1 22:17:44 2015
| Host         : scrooge.sce.ntu.edu.sg running 64-bit Ubuntu 12.04.5 LTS
| Command      : report_timing_summary -file ./report/hw_img_add_timing_routed.rpt
| Design       : hw_img_add
| Device       : 7z020-clg484
| Speed File   : -1  PRODUCTION 1.09 2013-11-22
-----------------------------------------------------------------------------------

Timing Summary Report

------------------------------------------------------------------------------------------------
| Timer Settings
| --------------
------------------------------------------------------------------------------------------------

  Enable Multi Corner Analysis               :  Yes
  Enable Pessimism Removal                   :  Yes
  Pessimism Removal Resolution               :  Nearest Common Node
  Enable Input Delay Default Clock           :  No
  Enable Preset / Clear Arcs                 :  No
  Disable Flight Delays                      :  No

  Corner  Analyze    Analyze    
  Name    Max Paths  Min Paths  
  ------  ---------  ---------  
  Slow    Yes        Yes        
  Fast    Yes        Yes        


------------------------------------------------------------------------------------------------
| Check Timing
| ------------
------------------------------------------------------------------------------------------------


Checking 'no_clock'.
 There are 0 register/latch pins with no clock.
 There are 0 register/latch pins with constant_clock.

Checking 'unconstrained_internal_endpoints'.
 There are 307 pins that are not constrained for maximum delay.
 There are 0 pins that are not constrained for maximum delay due to constant clock.

Checking 'no_input_delay'.
 There are 27 input ports with no input delay specified.

Checking 'no_output_delay'.
 There are 14 ports with no output delay specified.

Checking 'multiple_clock'.
 There are 0 register/latch pins with related clocks.
 There are 0 register/latch pins with exclusive clocks.

Checking 'generated_clocks'.
 There are 0 generated clocks that are not connected to a clock source.

Checking 'loops'.
 There are 0 combinational loops in the design.

Checking 'partial_input_delay'.
 There are 0 input ports with partial input delay specified.

Checking 'partial_output_delay'.
 There are 0 ports with partial output delay specified.

Checking 'unexpandable_clocks'.
 There are 0 related clock pairs.
 There are 0 User Ignored clock pairs.

Checking 'latch_loops'.
 There are 0 combinational latch loops in the design through latch input

------------------------------------------------------------------------------------------------
| Design Timing Summary
| ---------------------
------------------------------------------------------------------------------------------------

    WNS(ns)      TNS(ns)  TNS Failing Endpoints  TNS Total Endpoints      WHS(ns)      THS(ns)  THS Failing Endpoints  THS Total Endpoints     WPWS(ns)     TPWS(ns)  TPWS Failing Endpoints  TPWS Total Endpoints  
    -------      -------  ---------------------  -------------------      -------      -------  ---------------------  -------------------     --------     --------  ----------------------  --------------------  
      0.337        0.000                      0                 5177        0.063        0.000                      0                 5177        3.995        0.000                       0                  2643  


All user specified timing constraints are met.


------------------------------------------------------------------------------------------------
| Clock Summary
| -------------
------------------------------------------------------------------------------------------------

Clock  Waveform(ns)       Period(ns)      Frequency(MHz)
-----  ------------       ----------      --------------
CLK    {0.000 5.000}      10.000          100.000         


------------------------------------------------------------------------------------------------
| Intra Clock Table
| -----------------
------------------------------------------------------------------------------------------------

Clock             WNS(ns)      TNS(ns)  TNS Failing Endpoints  TNS Total Endpoints      WHS(ns)      THS(ns)  THS Failing Endpoints  THS Total Endpoints     WPWS(ns)     TPWS(ns)  TPWS Failing Endpoints  TPWS Total Endpoints  
-----             -------      -------  ---------------------  -------------------      -------      -------  ---------------------  -------------------     --------     --------  ----------------------  --------------------  
CLK                 0.337        0.000                      0                 5177        0.063        0.000                      0                 5177        3.995        0.000                       0                  2643  


------------------------------------------------------------------------------------------------
| Inter Clock Table
| -----------------
------------------------------------------------------------------------------------------------

From Clock    To Clock          WNS(ns)      TNS(ns)  TNS Failing Endpoints  TNS Total Endpoints      WHS(ns)      THS(ns)  THS Failing Endpoints  THS Total Endpoints  
----------    --------          -------      -------  ---------------------  -------------------      -------      -------  ---------------------  -------------------  


------------------------------------------------------------------------------------------------
| Other Path Groups Table
| -----------------------
------------------------------------------------------------------------------------------------

Path Group    From Clock    To Clock          WNS(ns)      TNS(ns)  TNS Failing Endpoints  TNS Total Endpoints      WHS(ns)      THS(ns)  THS Failing Endpoints  THS Total Endpoints  
----------    ----------    --------          -------      -------  ---------------------  -------------------      -------      -------  ---------------------  -------------------  


------------------------------------------------------------------------------------------------
| Timing Details
| --------------
------------------------------------------------------------------------------------------------


---------------------------------------------------------------------------------------------------
From Clock:  CLK
  To Clock:  CLK

Setup :            0  Failing Endpoints,  Worst Slack        0.337ns,  Total Violation        0.000ns
Hold  :            0  Failing Endpoints,  Worst Slack        0.063ns,  Total Violation        0.000ns
PW    :            0  Failing Endpoints,  Worst Slack        3.995ns,  Total Violation        0.000ns
---------------------------------------------------------------------------------------------------


Max Delay Paths
--------------------------------------------------------------------------------------
Slack (MET) :             0.337ns  (required time - arrival time)
  Source:                 grp_AddWeighted_1080_1920_0_0_0_double_s_fu_231/hw_img_add_dadd_64ns_64ns_64_5_full_dsp_U13/hw_img_add_ap_dadd_3_full_dsp_u/U0/i_synth/ADDSUB_OP.ADDSUB/SPEED_OP.LOGIC.OP/EXP/NUMB_CMP/FAST_CMP.CMP_BOT/C_CHAIN/CHAIN_GEN[15].CARRYS_DEL.NEED_DEL.CARRYS_FD/C
                            (rising edge-triggered cell FDRE clocked by CLK  {rise@0.000ns fall@5.000ns period=10.000ns})
  Destination:            grp_AddWeighted_1080_1920_0_0_0_double_s_fu_231/hw_img_add_dadd_64ns_64ns_64_5_full_dsp_U13/hw_img_add_ap_dadd_3_full_dsp_u/U0/i_synth/ADDSUB_OP.ADDSUB/SPEED_OP.LOGIC.OP/ALIGN_BLK/FRAC_ADDSUB/DSP_ADD.FRAC_ADDSUB/DSP48E1_ADD.DSP48E1_ADD/DSP/CARRYIN
                            (rising edge-triggered cell DSP48E1 clocked by CLK  {rise@0.000ns fall@5.000ns period=10.000ns})
  Path Group:             CLK
  Path Type:              Setup (Max at Slow Process Corner)
  Requirement:            10.000ns  (CLK rise@10.000ns - CLK rise@0.000ns)
  Data Path Delay:        8.361ns  (logic 2.563ns (30.654%)  route 5.798ns (69.346%))
  Logic Levels:           9  (CARRY4=1 LUT2=1 LUT3=1 LUT4=2 LUT6=2 MUXF7=1 MUXF8=1)
  Clock Path Skew:        0.032ns (DCD - SCD + CPR)
    Destination Clock Delay (DCD):    1.870ns = ( 11.870 - 10.000 ) 
    Source Clock Delay      (SCD):    1.970ns
    Clock Pessimism Removal (CPR):    0.132ns
  Clock Uncertainty:      0.035ns  ((TSJ^2 + TIJ^2)^1/2 + DJ) / 2 + PE
    Total System Jitter     (TSJ):    0.071ns
    Total Input Jitter      (TIJ):    0.000ns
    Discrete Jitter          (DJ):    0.000ns
    Phase Error              (PE):    0.000ns

    Location             Delay type                Incr(ns)  Path(ns)    Netlist Resource(s)
  -------------------------------------------------------------------    -------------------
                         (clock CLK rise edge)        0.000     0.000 r  
                                                      0.000     0.000 r  ap_clk
                         net (fo=2656, unset)         1.970     1.970    grp_AddWeighted_1080_1920_0_0_0_double_s_fu_231/hw_img_add_dadd_64ns_64ns_64_5_full_dsp_U13/hw_img_add_ap_dadd_3_full_dsp_u/U0/i_synth/aclk
    SLICE_X90Y138                                                     r  grp_AddWeighted_1080_1920_0_0_0_double_s_fu_231/hw_img_add_dadd_64ns_64ns_64_5_full_dsp_U13/hw_img_add_ap_dadd_3_full_dsp_u/U0/i_synth/ADDSUB_OP.ADDSUB/SPEED_OP.LOGIC.OP/EXP/NUMB_CMP/FAST_CMP.CMP_BOT/C_CHAIN/CHAIN_GEN[15].CARRYS_DEL.NEED_DEL.CARRYS_FD/C
  -------------------------------------------------------------------    -------------------
    SLICE_X90Y138        FDRE (Prop_fdre_C_Q)         0.518     2.488 r  grp_AddWeighted_1080_1920_0_0_0_double_s_fu_231/hw_img_add_dadd_64ns_64ns_64_5_full_dsp_U13/hw_img_add_ap_dadd_3_full_dsp_u/U0/i_synth/ADDSUB_OP.ADDSUB/SPEED_OP.LOGIC.OP/EXP/NUMB_CMP/FAST_CMP.CMP_BOT/C_CHAIN/CHAIN_GEN[15].CARRYS_DEL.NEED_DEL.CARRYS_FD/Q
                         net (fo=2, routed)           0.882     3.370    grp_AddWeighted_1080_1920_0_0_0_double_s_fu_231/hw_img_add_dadd_64ns_64ns_64_5_full_dsp_U13/hw_img_add_ap_dadd_3_full_dsp_u/U0/i_synth/ADDSUB_OP.ADDSUB/SPEED_OP.LOGIC.OP/EXP/NUMB_CMP/a_gt_b_bot
    SLICE_X88Y139        LUT3 (Prop_lut3_I1_O)        0.124     3.494 r  grp_AddWeighted_1080_1920_0_0_0_double_s_fu_231/hw_img_add_dadd_64ns_64ns_64_5_full_dsp_U13/hw_img_add_ap_dadd_3_full_dsp_u/U0/i_synth/DSP_i_46__0/O
                         net (fo=108, routed)         1.284     4.778    grp_AddWeighted_1080_1920_0_0_0_double_s_fu_231/hw_img_add_dadd_64ns_64ns_64_5_full_dsp_U13/hw_img_add_ap_dadd_3_full_dsp_u/U0/i_synth/ADDSUB_OP.ADDSUB/SPEED_OP.LOGIC.OP/b_largest
    SLICE_X86Y134        LUT6 (Prop_lut6_I3_O)        0.124     4.902 f  grp_AddWeighted_1080_1920_0_0_0_double_s_fu_231/hw_img_add_dadd_64ns_64ns_64_5_full_dsp_U13/hw_img_add_ap_dadd_3_full_dsp_u/U0/i_synth/CHAIN_GEN[5].C_MUX.CARRY_MUX_i_2__0/O
                         net (fo=3, routed)           1.058     5.960    grp_AddWeighted_1080_1920_0_0_0_double_s_fu_231/hw_img_add_dadd_64ns_64ns_64_5_full_dsp_U13/hw_img_add_ap_dadd_3_full_dsp_u/U0/i_synth/ADDSUB_OP.ADDSUB/SPEED_OP.LOGIC.OP/ALIGN_BLK/sml_mant_align__0[21]
    SLICE_X92Y134        LUT4 (Prop_lut4_I0_O)        0.124     6.084 r  grp_AddWeighted_1080_1920_0_0_0_double_s_fu_231/hw_img_add_dadd_64ns_64ns_64_5_full_dsp_U13/hw_img_add_ap_dadd_3_full_dsp_u/U0/i_synth/CHAIN_GEN[5].C_MUX.CARRY_MUX_i_1/O
                         net (fo=1, routed)           0.000     6.084    grp_AddWeighted_1080_1920_0_0_0_double_s_fu_231/hw_img_add_dadd_64ns_64ns_64_5_full_dsp_U13/hw_img_add_ap_dadd_3_full_dsp_u/U0/i_synth/ADDSUB_OP.ADDSUB/SPEED_OP.LOGIC.OP/ALIGN_BLK/ALIGN_SHIFT/ALIGN_Z_D/EQ_ZERO/chunk_det[5]
    SLICE_X92Y134        CARRY4 (Prop_carry4_S[1]_CO[2])
                                                      0.574     6.658 f  grp_AddWeighted_1080_1920_0_0_0_double_s_fu_231/hw_img_add_dadd_64ns_64ns_64_5_full_dsp_U13/hw_img_add_ap_dadd_3_full_dsp_u/U0/i_synth/ADDSUB_OP.ADDSUB/SPEED_OP.LOGIC.OP/ALIGN_BLK/ALIGN_SHIFT/ALIGN_Z_D/EQ_ZERO/CARRY_ZERO_DET/CHAIN_GEN[4].C_MUX.CARRY_MUX_CARRY4/CO[2]
                         net (fo=1, routed)           0.428     7.086    grp_AddWeighted_1080_1920_0_0_0_double_s_fu_231/hw_img_add_dadd_64ns_64ns_64_5_full_dsp_U13/hw_img_add_ap_dadd_3_full_dsp_u/U0/i_synth/ADDSUB_OP.ADDSUB/SPEED_OP.LOGIC.OP/ALIGN_BLK/ALIGN_SHIFT/ALIGN_Z_D/p_0_in25_in
    SLICE_X90Y134        LUT4 (Prop_lut4_I3_O)        0.310     7.396 f  grp_AddWeighted_1080_1920_0_0_0_double_s_fu_231/hw_img_add_dadd_64ns_64ns_64_5_full_dsp_U13/hw_img_add_ap_dadd_3_full_dsp_u/U0/i_synth/MUX_LOOP[2].OTHER_LEVELS.DO_CHUNKS[0].LUT6_STRUCT_MUX.MUX0_i_12/O
                         net (fo=1, routed)           0.831     8.227    grp_AddWeighted_1080_1920_0_0_0_double_s_fu_231/hw_img_add_dadd_64ns_64ns_64_5_full_dsp_U13/hw_img_add_ap_dadd_3_full_dsp_u/U0/i_synth/ADDSUB_OP.ADDSUB/SPEED_OP.LOGIC.OP/ALIGN_BLK/ALIGN_SHIFT/ALIGN_Z_D/p_27_out
    SLICE_X91Y134        LUT6 (Prop_lut6_I0_O)        0.124     8.351 f  grp_AddWeighted_1080_1920_0_0_0_double_s_fu_231/hw_img_add_dadd_64ns_64ns_64_5_full_dsp_U13/hw_img_add_ap_dadd_3_full_dsp_u/U0/i_synth/MUX_LOOP[2].OTHER_LEVELS.DO_CHUNKS[0].LUT6_STRUCT_MUX.MUX0_i_3/O
                         net (fo=1, routed)           0.000     8.351    grp_AddWeighted_1080_1920_0_0_0_double_s_fu_231/hw_img_add_dadd_64ns_64ns_64_5_full_dsp_U13/hw_img_add_ap_dadd_3_full_dsp_u/U0/i_synth/ADDSUB_OP.ADDSUB/SPEED_OP.LOGIC.OP/ALIGN_BLK/ALIGN_SHIFT/ALIGN_Z_D/I1
    SLICE_X91Y134        MUXF7 (Prop_muxf7_I1_O)      0.245     8.596 f  grp_AddWeighted_1080_1920_0_0_0_double_s_fu_231/hw_img_add_dadd_64ns_64ns_64_5_full_dsp_U13/hw_img_add_ap_dadd_3_full_dsp_u/U0/i_synth/ADDSUB_OP.ADDSUB/SPEED_OP.LOGIC.OP/ALIGN_BLK/ALIGN_SHIFT/ALIGN_Z_D/MUX_LOOP[2].OTHER_LEVELS.DO_CHUNKS[0].LUT6_STRUCT_MUX.MUX0/O
                         net (fo=1, routed)           0.000     8.596    grp_AddWeighted_1080_1920_0_0_0_double_s_fu_231/hw_img_add_dadd_64ns_64ns_64_5_full_dsp_U13/hw_img_add_ap_dadd_3_full_dsp_u/U0/i_synth/ADDSUB_OP.ADDSUB/SPEED_OP.LOGIC.OP/ALIGN_BLK/ALIGN_SHIFT/ALIGN_Z_D/I0
    SLICE_X91Y134        MUXF8 (Prop_muxf8_I0_O)      0.104     8.700 f  grp_AddWeighted_1080_1920_0_0_0_double_s_fu_231/hw_img_add_dadd_64ns_64ns_64_5_full_dsp_U13/hw_img_add_ap_dadd_3_full_dsp_u/U0/i_synth/ADDSUB_OP.ADDSUB/SPEED_OP.LOGIC.OP/ALIGN_BLK/ALIGN_SHIFT/ALIGN_Z_D/MUX_LOOP[2].OTHER_LEVELS.DO_CHUNKS[0].LUT6_STRUCT_MUX.MUX2/O
                         net (fo=2, routed)           0.559     9.259    grp_AddWeighted_1080_1920_0_0_0_double_s_fu_231/hw_img_add_dadd_64ns_64ns_64_5_full_dsp_U13/hw_img_add_ap_dadd_3_full_dsp_u/U0/i_synth/ADDSUB_OP.ADDSUB/SPEED_OP.LOGIC.OP/ALIGN_BLK/zeros_add
    SLICE_X91Y137        LUT2 (Prop_lut2_I1_O)        0.316     9.575 r  grp_AddWeighted_1080_1920_0_0_0_double_s_fu_231/hw_img_add_dadd_64ns_64ns_64_5_full_dsp_U13/hw_img_add_ap_dadd_3_full_dsp_u/U0/i_synth/DSP_i_1__0/O
                         net (fo=1, routed)           0.756    10.331    grp_AddWeighted_1080_1920_0_0_0_double_s_fu_231/hw_img_add_dadd_64ns_64ns_64_5_full_dsp_U13/hw_img_add_ap_dadd_3_full_dsp_u/U0/i_synth/n_0_DSP_i_1__0
    DSP48_X4Y55          DSP48E1                                      r  grp_AddWeighted_1080_1920_0_0_0_double_s_fu_231/hw_img_add_dadd_64ns_64ns_64_5_full_dsp_U13/hw_img_add_ap_dadd_3_full_dsp_u/U0/i_synth/ADDSUB_OP.ADDSUB/SPEED_OP.LOGIC.OP/ALIGN_BLK/FRAC_ADDSUB/DSP_ADD.FRAC_ADDSUB/DSP48E1_ADD.DSP48E1_ADD/DSP/CARRYIN
  -------------------------------------------------------------------    -------------------

                         (clock CLK rise edge)       10.000    10.000 r  
                                                      0.000    10.000 r  ap_clk
                         net (fo=2656, unset)         1.870    11.870    grp_AddWeighted_1080_1920_0_0_0_double_s_fu_231/hw_img_add_dadd_64ns_64ns_64_5_full_dsp_U13/hw_img_add_ap_dadd_3_full_dsp_u/U0/i_synth/aclk
    DSP48_X4Y55                                                       r  grp_AddWeighted_1080_1920_0_0_0_double_s_fu_231/hw_img_add_dadd_64ns_64ns_64_5_full_dsp_U13/hw_img_add_ap_dadd_3_full_dsp_u/U0/i_synth/ADDSUB_OP.ADDSUB/SPEED_OP.LOGIC.OP/ALIGN_BLK/FRAC_ADDSUB/DSP_ADD.FRAC_ADDSUB/DSP48E1_ADD.DSP48E1_ADD/DSP/CLK
                         clock pessimism              0.132    12.002    
                         clock uncertainty           -0.035    11.966    
    DSP48_X4Y55          DSP48E1 (Setup_dsp48e1_CLK_CARRYIN)
                                                     -1.298    10.668    grp_AddWeighted_1080_1920_0_0_0_double_s_fu_231/hw_img_add_dadd_64ns_64ns_64_5_full_dsp_U13/hw_img_add_ap_dadd_3_full_dsp_u/U0/i_synth/ADDSUB_OP.ADDSUB/SPEED_OP.LOGIC.OP/ALIGN_BLK/FRAC_ADDSUB/DSP_ADD.FRAC_ADDSUB/DSP48E1_ADD.DSP48E1_ADD/DSP
  -------------------------------------------------------------------
                         required time                         10.668    
                         arrival time                         -10.331    
  -------------------------------------------------------------------
                         slack                                  0.337    





Min Delay Paths
--------------------------------------------------------------------------------------
Slack (MET) :             0.063ns  (arrival time - required time)
  Source:                 grp_AddWeighted_1080_1920_0_0_0_double_s_fu_231/tmp_6_reg_275_reg[7]/C
                            (rising edge-triggered cell FDRE clocked by CLK  {rise@0.000ns fall@5.000ns period=10.000ns})
  Destination:            out_img_data_stream_0_V_out_img_data_stream_0_V_fifo_U/U_FIFO_hw_img_add_out_img_data_stream_0_V_shiftReg/SRL_SIG_reg[1][7]_srl2/D
                            (rising edge-triggered cell SRL16E clocked by CLK  {rise@0.000ns fall@5.000ns period=10.000ns})
  Path Group:             CLK
  Path Type:              Hold (Min at Fast Process Corner)
  Requirement:            0.000ns  (CLK rise@0.000ns - CLK rise@0.000ns)
  Data Path Delay:        0.257ns  (logic 0.141ns (54.828%)  route 0.116ns (45.172%))
  Logic Levels:           0  
  Clock Path Skew:        0.011ns (DCD - SCD - CPR)
    Destination Clock Delay (DCD):    0.918ns
    Source Clock Delay      (SCD):    0.649ns
    Clock Pessimism Removal (CPR):    0.258ns

    Location             Delay type                Incr(ns)  Path(ns)    Netlist Resource(s)
  -------------------------------------------------------------------    -------------------
                         (clock CLK rise edge)        0.000     0.000 r  
                                                      0.000     0.000 r  ap_clk
                         net (fo=2656, unset)         0.649     0.649    grp_AddWeighted_1080_1920_0_0_0_double_s_fu_231/ap_clk
    SLICE_X59Y127                                                     r  grp_AddWeighted_1080_1920_0_0_0_double_s_fu_231/tmp_6_reg_275_reg[7]/C
  -------------------------------------------------------------------    -------------------
    SLICE_X59Y127        FDRE (Prop_fdre_C_Q)         0.141     0.790 r  grp_AddWeighted_1080_1920_0_0_0_double_s_fu_231/tmp_6_reg_275_reg[7]/Q
                         net (fo=1, routed)           0.116     0.906    out_img_data_stream_0_V_out_img_data_stream_0_V_fifo_U/U_FIFO_hw_img_add_out_img_data_stream_0_V_shiftReg/in[7]
    SLICE_X58Y126        SRL16E                                       r  out_img_data_stream_0_V_out_img_data_stream_0_V_fifo_U/U_FIFO_hw_img_add_out_img_data_stream_0_V_shiftReg/SRL_SIG_reg[1][7]_srl2/D
  -------------------------------------------------------------------    -------------------

                         (clock CLK rise edge)        0.000     0.000 r  
                                                      0.000     0.000 r  ap_clk
                         net (fo=2656, unset)         0.918     0.918    out_img_data_stream_0_V_out_img_data_stream_0_V_fifo_U/U_FIFO_hw_img_add_out_img_data_stream_0_V_shiftReg/ap_clk
    SLICE_X58Y126                                                     r  out_img_data_stream_0_V_out_img_data_stream_0_V_fifo_U/U_FIFO_hw_img_add_out_img_data_stream_0_V_shiftReg/SRL_SIG_reg[1][7]_srl2/CLK
                         clock pessimism             -0.258     0.660    
    SLICE_X58Y126        SRL16E (Hold_srl16e_CLK_D)
                                                      0.183     0.843    out_img_data_stream_0_V_out_img_data_stream_0_V_fifo_U/U_FIFO_hw_img_add_out_img_data_stream_0_V_shiftReg/SRL_SIG_reg[1][7]_srl2
  -------------------------------------------------------------------
                         required time                         -0.843    
                         arrival time                           0.906    
  -------------------------------------------------------------------
                         slack                                  0.063    





Pulse Width Checks
--------------------------------------------------------------------------------------
Clock Name:         CLK
Waveform:           { 0 5 }
Period:             10.000
Sources:            { ap_clk }

Check Type        Corner  Lib Pin      Reference Pin  Required  Actual  Slack  Location       Pin
Min Period        n/a     DSP48E1/CLK  n/a            4.275     10.000  5.725  DSP48_X4Y45    grp_AddWeighted_1080_1920_0_0_0_double_s_fu_231/hw_img_add_dmul_64ns_64ns_64_6_max_dsp_U14/hw_img_add_ap_dmul_4_max_dsp_u/U0/i_synth/MULT.OP/MULT/DSP48E1_SPD_DBL_VARIANT.FIX_MULT/DSP5/DSP/CLK
Low Pulse Width   Slow    SRL16E/CLK   n/a            0.980     4.975   3.995  SLICE_X58Y107  in_img1_data_stream_0_V_in_img1_data_stream_0_V_fifo_U/U_FIFO_hw_img_add_in_img1_data_stream_0_V_shiftReg/SRL_SIG_reg[1][0]_srl2/CLK
High Pulse Width  Slow    SRL16E/CLK   n/a            0.980     4.975   3.995  SLICE_X58Y107  in_img1_data_stream_0_V_in_img1_data_stream_0_V_fifo_U/U_FIFO_hw_img_add_in_img1_data_stream_0_V_shiftReg/SRL_SIG_reg[1][0]_srl2/CLK



