Copyright 1986-1999, 2001-2013 Xilinx, Inc. All Rights Reserved.
-----------------------------------------------------------------------------------
| Tool Version : Vivado v.2013.4 (lin64) Build 353583 Mon Dec  9 17:26:26 MST 2013
| Date         : Thu Jan  1 22:29:21 2015
| Host         : scrooge.sce.ntu.edu.sg running 64-bit Ubuntu 12.04.5 LTS
| Command      : report_timing_summary -file ./report/hw_img_sub_timing_routed.rpt
| Design       : hw_img_sub
| Device       : 7z020-clg484
| Speed File   : -1  PRODUCTION 1.09 2013-11-22
-----------------------------------------------------------------------------------

Timing Summary Report

------------------------------------------------------------------------------------------------
| Timer Settings
| --------------
------------------------------------------------------------------------------------------------

  Enable Multi Corner Analysis               :  Yes
  Enable Pessimism Removal                   :  Yes
  Pessimism Removal Resolution               :  Nearest Common Node
  Enable Input Delay Default Clock           :  No
  Enable Preset / Clear Arcs                 :  No
  Disable Flight Delays                      :  No

  Corner  Analyze    Analyze    
  Name    Max Paths  Min Paths  
  ------  ---------  ---------  
  Slow    Yes        Yes        
  Fast    Yes        Yes        


------------------------------------------------------------------------------------------------
| Check Timing
| ------------
------------------------------------------------------------------------------------------------


Checking 'no_clock'.
 There are 0 register/latch pins with no clock.
 There are 0 register/latch pins with constant_clock.

Checking 'unconstrained_internal_endpoints'.
 There are 282 pins that are not constrained for maximum delay.
 There are 0 pins that are not constrained for maximum delay due to constant clock.

Checking 'no_input_delay'.
 There are 27 input ports with no input delay specified.

Checking 'no_output_delay'.
 There are 14 ports with no output delay specified.

Checking 'multiple_clock'.
 There are 0 register/latch pins with related clocks.
 There are 0 register/latch pins with exclusive clocks.

Checking 'generated_clocks'.
 There are 0 generated clocks that are not connected to a clock source.

Checking 'loops'.
 There are 0 combinational loops in the design.

Checking 'partial_input_delay'.
 There are 0 input ports with partial input delay specified.

Checking 'partial_output_delay'.
 There are 0 ports with partial output delay specified.

Checking 'unexpandable_clocks'.
 There are 0 related clock pairs.
 There are 0 User Ignored clock pairs.

Checking 'latch_loops'.
 There are 0 combinational latch loops in the design through latch input

------------------------------------------------------------------------------------------------
| Design Timing Summary
| ---------------------
------------------------------------------------------------------------------------------------

    WNS(ns)      TNS(ns)  TNS Failing Endpoints  TNS Total Endpoints      WHS(ns)      THS(ns)  THS Failing Endpoints  THS Total Endpoints     WPWS(ns)     TPWS(ns)  TPWS Failing Endpoints  TPWS Total Endpoints  
    -------      -------  ---------------------  -------------------      -------      -------  ---------------------  -------------------     --------     --------  ----------------------  --------------------  
      3.562        0.000                      0                  702        0.098        0.000                      0                  702        3.971        0.000                       0                   326  


All user specified timing constraints are met.


------------------------------------------------------------------------------------------------
| Clock Summary
| -------------
------------------------------------------------------------------------------------------------

Clock  Waveform(ns)       Period(ns)      Frequency(MHz)
-----  ------------       ----------      --------------
CLK    {0.000 5.000}      10.000          100.000         


------------------------------------------------------------------------------------------------
| Intra Clock Table
| -----------------
------------------------------------------------------------------------------------------------

Clock             WNS(ns)      TNS(ns)  TNS Failing Endpoints  TNS Total Endpoints      WHS(ns)      THS(ns)  THS Failing Endpoints  THS Total Endpoints     WPWS(ns)     TPWS(ns)  TPWS Failing Endpoints  TPWS Total Endpoints  
-----             -------      -------  ---------------------  -------------------      -------      -------  ---------------------  -------------------     --------     --------  ----------------------  --------------------  
CLK                 3.562        0.000                      0                  702        0.098        0.000                      0                  702        3.971        0.000                       0                   326  


------------------------------------------------------------------------------------------------
| Inter Clock Table
| -----------------
------------------------------------------------------------------------------------------------

From Clock    To Clock          WNS(ns)      TNS(ns)  TNS Failing Endpoints  TNS Total Endpoints      WHS(ns)      THS(ns)  THS Failing Endpoints  THS Total Endpoints  
----------    --------          -------      -------  ---------------------  -------------------      -------      -------  ---------------------  -------------------  


------------------------------------------------------------------------------------------------
| Other Path Groups Table
| -----------------------
------------------------------------------------------------------------------------------------

Path Group    From Clock    To Clock          WNS(ns)      TNS(ns)  TNS Failing Endpoints  TNS Total Endpoints      WHS(ns)      THS(ns)  THS Failing Endpoints  THS Total Endpoints  
----------    ----------    --------          -------      -------  ---------------------  -------------------      -------      -------  ---------------------  -------------------  


------------------------------------------------------------------------------------------------
| Timing Details
| --------------
------------------------------------------------------------------------------------------------


---------------------------------------------------------------------------------------------------
From Clock:  CLK
  To Clock:  CLK

Setup :            0  Failing Endpoints,  Worst Slack        3.562ns,  Total Violation        0.000ns
Hold  :            0  Failing Endpoints,  Worst Slack        0.098ns,  Total Violation        0.000ns
PW    :            0  Failing Endpoints,  Worst Slack        3.971ns,  Total Violation        0.000ns
---------------------------------------------------------------------------------------------------


Max Delay Paths
--------------------------------------------------------------------------------------
Slack (MET) :             3.562ns  (required time - arrival time)
  Source:                 grp_arithm_pro_kernel_absdiff_1080_1920_0_0_0_int_s_fu_273/p_1_reg_101_reg[1]/C
                            (rising edge-triggered cell FDRE clocked by CLK  {rise@0.000ns fall@5.000ns period=10.000ns})
  Destination:            grp_arithm_pro_kernel_absdiff_1080_1920_0_0_0_int_s_fu_273/p_s_reg_112_reg[4]/R
                            (rising edge-triggered cell FDRE clocked by CLK  {rise@0.000ns fall@5.000ns period=10.000ns})
  Path Group:             CLK
  Path Type:              Setup (Max at Slow Process Corner)
  Requirement:            10.000ns  (CLK rise@10.000ns - CLK rise@0.000ns)
  Data Path Delay:        5.925ns  (logic 1.579ns (26.649%)  route 4.346ns (73.351%))
  Logic Levels:           3  (CARRY4=1 LUT3=1 LUT6=1)
  Clock Path Skew:        -0.049ns (DCD - SCD + CPR)
    Destination Clock Delay (DCD):    0.924ns = ( 10.924 - 10.000 ) 
    Source Clock Delay      (SCD):    0.973ns
    Clock Pessimism Removal (CPR):    0.000ns
  Clock Uncertainty:      0.035ns  ((TSJ^2 + TIJ^2)^1/2 + DJ) / 2 + PE
    Total System Jitter     (TSJ):    0.071ns
    Total Input Jitter      (TIJ):    0.000ns
    Discrete Jitter          (DJ):    0.000ns
    Phase Error              (PE):    0.000ns

    Location             Delay type                Incr(ns)  Path(ns)    Netlist Resource(s)
  -------------------------------------------------------------------    -------------------
                         (clock CLK rise edge)        0.000     0.000 r  
                                                      0.000     0.000 r  ap_clk
                         net (fo=325, unset)          0.973     0.973    grp_arithm_pro_kernel_absdiff_1080_1920_0_0_0_int_s_fu_273/ap_clk
    SLICE_X30Y7                                                       r  grp_arithm_pro_kernel_absdiff_1080_1920_0_0_0_int_s_fu_273/p_1_reg_101_reg[1]/C
  -------------------------------------------------------------------    -------------------
    SLICE_X30Y7          FDRE (Prop_fdre_C_Q)         0.518     1.491 r  grp_arithm_pro_kernel_absdiff_1080_1920_0_0_0_int_s_fu_273/p_1_reg_101_reg[1]/Q
                         net (fo=2, routed)           1.170     2.661    grp_arithm_pro_kernel_absdiff_1080_1920_0_0_0_int_s_fu_273/p_1_reg_101[1]
    SLICE_X30Y8          LUT6 (Prop_lut6_I0_O)        0.124     2.785 r  grp_arithm_pro_kernel_absdiff_1080_1920_0_0_0_int_s_fu_273/ap_CS_fsm[1]_i_6/O
                         net (fo=1, routed)           0.000     2.785    grp_arithm_pro_kernel_absdiff_1080_1920_0_0_0_int_s_fu_273/n_0_ap_CS_fsm[1]_i_6
    SLICE_X30Y8          CARRY4 (Prop_carry4_S[0]_CO[3])
                                                      0.513     3.298 f  grp_arithm_pro_kernel_absdiff_1080_1920_0_0_0_int_s_fu_273/ap_CS_fsm_reg[1]_i_2/CO[3]
                         net (fo=5, routed)           2.504     5.802    grp_arithm_pro_kernel_absdiff_1080_1920_0_0_0_int_s_fu_273/n_0_ap_CS_fsm_reg[1]_i_2
    SLICE_X39Y48         LUT3 (Prop_lut3_I2_O)        0.424     6.226 r  grp_arithm_pro_kernel_absdiff_1080_1920_0_0_0_int_s_fu_273/p_s_reg_112[0]_i_1/O
                         net (fo=15, routed)          0.672     6.898    grp_arithm_pro_kernel_absdiff_1080_1920_0_0_0_int_s_fu_273/ap_reg_ppiten_pp0_it00
    SLICE_X41Y49         FDRE                                         r  grp_arithm_pro_kernel_absdiff_1080_1920_0_0_0_int_s_fu_273/p_s_reg_112_reg[4]/R
  -------------------------------------------------------------------    -------------------

                         (clock CLK rise edge)       10.000    10.000 r  
                                                      0.000    10.000 r  ap_clk
                         net (fo=325, unset)          0.924    10.924    grp_arithm_pro_kernel_absdiff_1080_1920_0_0_0_int_s_fu_273/ap_clk
    SLICE_X41Y49                                                      r  grp_arithm_pro_kernel_absdiff_1080_1920_0_0_0_int_s_fu_273/p_s_reg_112_reg[4]/C
                         clock pessimism              0.000    10.924    
                         clock uncertainty           -0.035    10.889    
    SLICE_X41Y49         FDRE (Setup_fdre_C_R)       -0.429    10.460    grp_arithm_pro_kernel_absdiff_1080_1920_0_0_0_int_s_fu_273/p_s_reg_112_reg[4]
  -------------------------------------------------------------------
                         required time                         10.460    
                         arrival time                          -6.898    
  -------------------------------------------------------------------
                         slack                                  3.562    





Min Delay Paths
--------------------------------------------------------------------------------------
Slack (MET) :             0.098ns  (arrival time - required time)
  Source:                 grp_arithm_pro_kernel_absdiff_1080_1920_0_0_0_int_s_fu_273/i_V_reg_264_reg[11]/C
                            (rising edge-triggered cell FDRE clocked by CLK  {rise@0.000ns fall@5.000ns period=10.000ns})
  Destination:            grp_arithm_pro_kernel_absdiff_1080_1920_0_0_0_int_s_fu_273/p_1_reg_101_reg[11]/D
                            (rising edge-triggered cell FDRE clocked by CLK  {rise@0.000ns fall@5.000ns period=10.000ns})
  Path Group:             CLK
  Path Type:              Hold (Min at Fast Process Corner)
  Requirement:            0.000ns  (CLK rise@0.000ns - CLK rise@0.000ns)
  Data Path Delay:        0.195ns  (logic 0.141ns (72.269%)  route 0.054ns (27.731%))
  Logic Levels:           0  
  Clock Path Skew:        0.022ns (DCD - SCD - CPR)
    Destination Clock Delay (DCD):    0.432ns
    Source Clock Delay      (SCD):    0.410ns
    Clock Pessimism Removal (CPR):    -0.000ns

    Location             Delay type                Incr(ns)  Path(ns)    Netlist Resource(s)
  -------------------------------------------------------------------    -------------------
                         (clock CLK rise edge)        0.000     0.000 r  
                                                      0.000     0.000 r  ap_clk
                         net (fo=325, unset)          0.410     0.410    grp_arithm_pro_kernel_absdiff_1080_1920_0_0_0_int_s_fu_273/ap_clk
    SLICE_X31Y9                                                       r  grp_arithm_pro_kernel_absdiff_1080_1920_0_0_0_int_s_fu_273/i_V_reg_264_reg[11]/C
  -------------------------------------------------------------------    -------------------
    SLICE_X31Y9          FDRE (Prop_fdre_C_Q)         0.141     0.551 r  grp_arithm_pro_kernel_absdiff_1080_1920_0_0_0_int_s_fu_273/i_V_reg_264_reg[11]/Q
                         net (fo=1, routed)           0.054     0.605    grp_arithm_pro_kernel_absdiff_1080_1920_0_0_0_int_s_fu_273/i_V_reg_264[11]
    SLICE_X30Y9          FDRE                                         r  grp_arithm_pro_kernel_absdiff_1080_1920_0_0_0_int_s_fu_273/p_1_reg_101_reg[11]/D
  -------------------------------------------------------------------    -------------------

                         (clock CLK rise edge)        0.000     0.000 r  
                                                      0.000     0.000 r  ap_clk
                         net (fo=325, unset)          0.432     0.432    grp_arithm_pro_kernel_absdiff_1080_1920_0_0_0_int_s_fu_273/ap_clk
    SLICE_X30Y9                                                       r  grp_arithm_pro_kernel_absdiff_1080_1920_0_0_0_int_s_fu_273/p_1_reg_101_reg[11]/C
                         clock pessimism              0.000     0.432    
    SLICE_X30Y9          FDRE (Hold_fdre_C_D)         0.076     0.508    grp_arithm_pro_kernel_absdiff_1080_1920_0_0_0_int_s_fu_273/p_1_reg_101_reg[11]
  -------------------------------------------------------------------
                         required time                         -0.508    
                         arrival time                           0.605    
  -------------------------------------------------------------------
                         slack                                  0.098    





Pulse Width Checks
--------------------------------------------------------------------------------------
Clock Name:         CLK
Waveform:           { 0 5 }
Period:             10.000
Sources:            { ap_clk }

Check Type        Corner  Lib Pin     Reference Pin  Required  Actual  Slack  Location      Pin
Min Period        n/a     FDSE/C      n/a            1.000     10.000  9.000  SLICE_X42Y49  FSM_onehot_ap_CS_fsm_reg[0]/C
Low Pulse Width   Slow    SRL16E/CLK  n/a            0.980     4.951   3.971  SLICE_X34Y52  in_img1_data_stream_0_V_in_img1_data_stream_0_V_fifo_U/U_FIFO_hw_img_sub_in_img1_data_stream_0_V_shiftReg/SRL_SIG_reg[1][0]_srl2/CLK
High Pulse Width  Slow    SRL16E/CLK  n/a            0.980     4.951   3.971  SLICE_X34Y52  in_img1_data_stream_0_V_in_img1_data_stream_0_V_fifo_U/U_FIFO_hw_img_sub_in_img1_data_stream_0_V_shiftReg/SRL_SIG_reg[1][0]_srl2/CLK



