Copyright 1986-1999, 2001-2013 Xilinx, Inc. All Rights Reserved.
-----------------------------------------------------------------------------------
| Tool Version : Vivado v.2013.4 (lin64) Build 353583 Mon Dec  9 17:26:26 MST 2013
| Date         : Thu Jan  1 22:59:35 2015
| Host         : scrooge.sce.ntu.edu.sg running 64-bit Ubuntu 12.04.5 LTS
| Command      : report_timing -file ./report/hw_img_resize_timing_synth.rpt
| Design       : hw_img_resize
| Device       : 7z020-clg484
| Speed File   : -1  PRODUCTION 1.09 2013-11-22
-----------------------------------------------------------------------------------

Timing Report

Slack (MET) :             1.712ns  (required time - arrival time)
  Source:                 Resize_0_1080_1920_1080_1920_U0/grp_Resize_opr_linear_0_1080_1920_1080_1920_s_fu_49/hw_img_resize_udiv_44ns_44ns_44_47_U15/hw_img_resize_udiv_44ns_44ns_44_47_div_U/cnt_reg[14]/C
                            (rising edge-triggered cell FDRE clocked by CLK  {rise@0.000ns fall@5.000ns period=10.000ns})
  Destination:            Resize_0_1080_1920_1080_1920_U0/grp_Resize_opr_linear_0_1080_1920_1080_1920_s_fu_49/hw_img_resize_udiv_44ns_44ns_44_47_U15/hw_img_resize_udiv_44ns_44ns_44_47_div_U/remd_tmp_reg[0]/D
                            (rising edge-triggered cell FDRE clocked by CLK  {rise@0.000ns fall@5.000ns period=10.000ns})
  Path Group:             CLK
  Path Type:              Setup (Max at Slow Process Corner)
  Requirement:            10.000ns  (CLK rise@10.000ns - CLK rise@0.000ns)
  Data Path Delay:        8.188ns  (logic 3.313ns (40.462%)  route 4.875ns (59.538%))
  Logic Levels:           17  (CARRY4=12 LUT3=1 LUT4=1 LUT5=1 LUT6=2)
  Clock Path Skew:        -0.049ns (DCD - SCD + CPR)
    Destination Clock Delay (DCD):    0.924ns = ( 10.924 - 10.000 ) 
    Source Clock Delay      (SCD):    0.973ns
    Clock Pessimism Removal (CPR):    0.000ns
  Clock Uncertainty:      0.035ns  ((TSJ^2 + TIJ^2)^1/2 + DJ) / 2 + PE
    Total System Jitter     (TSJ):    0.071ns
    Total Input Jitter      (TIJ):    0.000ns
    Discrete Jitter          (DJ):    0.000ns
    Phase Error              (PE):    0.000ns

    Location             Delay type                Incr(ns)  Path(ns)    Netlist Resource(s)
  -------------------------------------------------------------------    -------------------
                         (clock CLK rise edge)        0.000     0.000 r  
                                                      0.000     0.000 r  ap_clk
                         net (fo=7066, unset)         0.973     0.973    Resize_0_1080_1920_1080_1920_U0/grp_Resize_opr_linear_0_1080_1920_1080_1920_s_fu_49/hw_img_resize_udiv_44ns_44ns_44_47_U15/hw_img_resize_udiv_44ns_44ns_44_47_div_U/ap_clk
                                                                      r  Resize_0_1080_1920_1080_1920_U0/grp_Resize_opr_linear_0_1080_1920_1080_1920_s_fu_49/hw_img_resize_udiv_44ns_44ns_44_47_U15/hw_img_resize_udiv_44ns_44ns_44_47_div_U/cnt_reg[14]/C
  -------------------------------------------------------------------    -------------------
                         FDRE (Prop_fdre_C_Q)         0.518     1.491 f  Resize_0_1080_1920_1080_1920_U0/grp_Resize_opr_linear_0_1080_1920_1080_1920_s_fu_49/hw_img_resize_udiv_44ns_44ns_44_47_U15/hw_img_resize_udiv_44ns_44ns_44_47_div_U/cnt_reg[14]/Q
                         net (fo=2, unplaced)         0.973     2.464    Resize_0_1080_1920_1080_1920_U0/grp_Resize_opr_linear_0_1080_1920_1080_1920_s_fu_49/hw_img_resize_udiv_44ns_44ns_44_47_U15/hw_img_resize_udiv_44ns_44ns_44_47_div_U/cnt_reg[14]
                         LUT6 (Prop_lut6_I0_O)        0.124     2.588 r  Resize_0_1080_1920_1080_1920_U0/grp_Resize_opr_linear_0_1080_1920_1080_1920_s_fu_49/hw_img_resize_udiv_44ns_44ns_44_47_U15/hw_img_resize_udiv_44ns_44ns_44_47_div_U/quot_tmp[31]_i_6/O
                         net (fo=1, unplaced)         0.964     3.552    Resize_0_1080_1920_1080_1920_U0/grp_Resize_opr_linear_0_1080_1920_1080_1920_s_fu_49/hw_img_resize_udiv_44ns_44ns_44_47_U15/hw_img_resize_udiv_44ns_44ns_44_47_div_U/n_0_quot_tmp[31]_i_6
                         LUT6 (Prop_lut6_I0_O)        0.124     3.676 r  Resize_0_1080_1920_1080_1920_U0/grp_Resize_opr_linear_0_1080_1920_1080_1920_s_fu_49/hw_img_resize_udiv_44ns_44ns_44_47_U15/hw_img_resize_udiv_44ns_44ns_44_47_div_U/quot_tmp[31]_i_2/O
                         net (fo=4, unplaced)         0.689     4.365    Resize_0_1080_1920_1080_1920_U0/grp_Resize_opr_linear_0_1080_1920_1080_1920_s_fu_49/hw_img_resize_udiv_44ns_44ns_44_47_U15/hw_img_resize_udiv_44ns_44ns_44_47_div_U/n_0_quot_tmp[31]_i_2
                         LUT4 (Prop_lut4_I0_O)        0.124     4.489 r  Resize_0_1080_1920_1080_1920_U0/grp_Resize_opr_linear_0_1080_1920_1080_1920_s_fu_49/hw_img_resize_udiv_44ns_44ns_44_47_U15/hw_img_resize_udiv_44ns_44ns_44_47_div_U/quot_tmp[31]_i_1/O
                         net (fo=218, unplaced)       1.021     5.510    Resize_0_1080_1920_1080_1920_U0/grp_Resize_opr_linear_0_1080_1920_1080_1920_s_fu_49/hw_img_resize_udiv_44ns_44ns_44_47_U15/hw_img_resize_udiv_44ns_44ns_44_47_div_U/p_0_out0
                         LUT3 (Prop_lut3_I1_O)        0.150     5.660 r  Resize_0_1080_1920_1080_1920_U0/grp_Resize_opr_linear_0_1080_1920_1080_1920_s_fu_49/hw_img_resize_udiv_44ns_44ns_44_47_U15/hw_img_resize_udiv_44ns_44ns_44_47_div_U/remd_tmp[3]_i_6/O
                         net (fo=1, unplaced)         0.000     5.660    Resize_0_1080_1920_1080_1920_U0/grp_Resize_opr_linear_0_1080_1920_1080_1920_s_fu_49/hw_img_resize_udiv_44ns_44ns_44_47_U15/hw_img_resize_udiv_44ns_44ns_44_47_div_U/L[0]
                         CARRY4 (Prop_carry4_DI[0]_CO[3])
                                                      0.576     6.236 r  Resize_0_1080_1920_1080_1920_U0/grp_Resize_opr_linear_0_1080_1920_1080_1920_s_fu_49/hw_img_resize_udiv_44ns_44ns_44_47_U15/hw_img_resize_udiv_44ns_44ns_44_47_div_U/remd_tmp_reg[3]_i_2/CO[3]
                         net (fo=1, unplaced)         0.009     6.245    Resize_0_1080_1920_1080_1920_U0/grp_Resize_opr_linear_0_1080_1920_1080_1920_s_fu_49/hw_img_resize_udiv_44ns_44ns_44_47_U15/hw_img_resize_udiv_44ns_44ns_44_47_div_U/n_0_remd_tmp_reg[3]_i_2
                         CARRY4 (Prop_carry4_CI_CO[3])
                                                      0.117     6.362 r  Resize_0_1080_1920_1080_1920_U0/grp_Resize_opr_linear_0_1080_1920_1080_1920_s_fu_49/hw_img_resize_udiv_44ns_44ns_44_47_U15/hw_img_resize_udiv_44ns_44ns_44_47_div_U/remd_tmp_reg[7]_i_2/CO[3]
                         net (fo=1, unplaced)         0.000     6.362    Resize_0_1080_1920_1080_1920_U0/grp_Resize_opr_linear_0_1080_1920_1080_1920_s_fu_49/hw_img_resize_udiv_44ns_44ns_44_47_U15/hw_img_resize_udiv_44ns_44ns_44_47_div_U/n_0_remd_tmp_reg[7]_i_2
                         CARRY4 (Prop_carry4_CI_CO[3])
                                                      0.117     6.479 r  Resize_0_1080_1920_1080_1920_U0/grp_Resize_opr_linear_0_1080_1920_1080_1920_s_fu_49/hw_img_resize_udiv_44ns_44ns_44_47_U15/hw_img_resize_udiv_44ns_44ns_44_47_div_U/remd_tmp_reg[11]_i_2/CO[3]
                         net (fo=1, unplaced)         0.000     6.479    Resize_0_1080_1920_1080_1920_U0/grp_Resize_opr_linear_0_1080_1920_1080_1920_s_fu_49/hw_img_resize_udiv_44ns_44ns_44_47_U15/hw_img_resize_udiv_44ns_44ns_44_47_div_U/n_0_remd_tmp_reg[11]_i_2
                         CARRY4 (Prop_carry4_CI_CO[3])
                                                      0.117     6.596 r  Resize_0_1080_1920_1080_1920_U0/grp_Resize_opr_linear_0_1080_1920_1080_1920_s_fu_49/hw_img_resize_udiv_44ns_44ns_44_47_U15/hw_img_resize_udiv_44ns_44ns_44_47_div_U/remd_tmp_reg[15]_i_2/CO[3]
                         net (fo=1, unplaced)         0.000     6.596    Resize_0_1080_1920_1080_1920_U0/grp_Resize_opr_linear_0_1080_1920_1080_1920_s_fu_49/hw_img_resize_udiv_44ns_44ns_44_47_U15/hw_img_resize_udiv_44ns_44ns_44_47_div_U/n_0_remd_tmp_reg[15]_i_2
                         CARRY4 (Prop_carry4_CI_CO[3])
                                                      0.117     6.713 r  Resize_0_1080_1920_1080_1920_U0/grp_Resize_opr_linear_0_1080_1920_1080_1920_s_fu_49/hw_img_resize_udiv_44ns_44ns_44_47_U15/hw_img_resize_udiv_44ns_44ns_44_47_div_U/remd_tmp_reg[19]_i_2/CO[3]
                         net (fo=1, unplaced)         0.000     6.713    Resize_0_1080_1920_1080_1920_U0/grp_Resize_opr_linear_0_1080_1920_1080_1920_s_fu_49/hw_img_resize_udiv_44ns_44ns_44_47_U15/hw_img_resize_udiv_44ns_44ns_44_47_div_U/n_0_remd_tmp_reg[19]_i_2
                         CARRY4 (Prop_carry4_CI_CO[3])
                                                      0.117     6.830 r  Resize_0_1080_1920_1080_1920_U0/grp_Resize_opr_linear_0_1080_1920_1080_1920_s_fu_49/hw_img_resize_udiv_44ns_44ns_44_47_U15/hw_img_resize_udiv_44ns_44ns_44_47_div_U/remd_tmp_reg[23]_i_2/CO[3]
                         net (fo=1, unplaced)         0.000     6.830    Resize_0_1080_1920_1080_1920_U0/grp_Resize_opr_linear_0_1080_1920_1080_1920_s_fu_49/hw_img_resize_udiv_44ns_44ns_44_47_U15/hw_img_resize_udiv_44ns_44ns_44_47_div_U/n_0_remd_tmp_reg[23]_i_2
                         CARRY4 (Prop_carry4_CI_CO[3])
                                                      0.117     6.947 r  Resize_0_1080_1920_1080_1920_U0/grp_Resize_opr_linear_0_1080_1920_1080_1920_s_fu_49/hw_img_resize_udiv_44ns_44ns_44_47_U15/hw_img_resize_udiv_44ns_44ns_44_47_div_U/remd_tmp_reg[27]_i_2/CO[3]
                         net (fo=1, unplaced)         0.000     6.947    Resize_0_1080_1920_1080_1920_U0/grp_Resize_opr_linear_0_1080_1920_1080_1920_s_fu_49/hw_img_resize_udiv_44ns_44ns_44_47_U15/hw_img_resize_udiv_44ns_44ns_44_47_div_U/n_0_remd_tmp_reg[27]_i_2
                         CARRY4 (Prop_carry4_CI_CO[3])
                                                      0.117     7.064 r  Resize_0_1080_1920_1080_1920_U0/grp_Resize_opr_linear_0_1080_1920_1080_1920_s_fu_49/hw_img_resize_udiv_44ns_44ns_44_47_U15/hw_img_resize_udiv_44ns_44ns_44_47_div_U/remd_tmp_reg[31]_i_2/CO[3]
                         net (fo=1, unplaced)         0.000     7.064    Resize_0_1080_1920_1080_1920_U0/grp_Resize_opr_linear_0_1080_1920_1080_1920_s_fu_49/hw_img_resize_udiv_44ns_44ns_44_47_U15/hw_img_resize_udiv_44ns_44ns_44_47_div_U/n_0_remd_tmp_reg[31]_i_2
                         CARRY4 (Prop_carry4_CI_CO[3])
                                                      0.117     7.181 r  Resize_0_1080_1920_1080_1920_U0/grp_Resize_opr_linear_0_1080_1920_1080_1920_s_fu_49/hw_img_resize_udiv_44ns_44ns_44_47_U15/hw_img_resize_udiv_44ns_44ns_44_47_div_U/remd_tmp_reg[35]_i_2/CO[3]
                         net (fo=1, unplaced)         0.000     7.181    Resize_0_1080_1920_1080_1920_U0/grp_Resize_opr_linear_0_1080_1920_1080_1920_s_fu_49/hw_img_resize_udiv_44ns_44ns_44_47_U15/hw_img_resize_udiv_44ns_44ns_44_47_div_U/n_0_remd_tmp_reg[35]_i_2
                         CARRY4 (Prop_carry4_CI_CO[3])
                                                      0.117     7.298 r  Resize_0_1080_1920_1080_1920_U0/grp_Resize_opr_linear_0_1080_1920_1080_1920_s_fu_49/hw_img_resize_udiv_44ns_44ns_44_47_U15/hw_img_resize_udiv_44ns_44ns_44_47_div_U/remd_tmp_reg[39]_i_2/CO[3]
                         net (fo=1, unplaced)         0.000     7.298    Resize_0_1080_1920_1080_1920_U0/grp_Resize_opr_linear_0_1080_1920_1080_1920_s_fu_49/hw_img_resize_udiv_44ns_44ns_44_47_U15/hw_img_resize_udiv_44ns_44ns_44_47_div_U/n_0_remd_tmp_reg[39]_i_2
                         CARRY4 (Prop_carry4_CI_CO[3])
                                                      0.117     7.415 r  Resize_0_1080_1920_1080_1920_U0/grp_Resize_opr_linear_0_1080_1920_1080_1920_s_fu_49/hw_img_resize_udiv_44ns_44ns_44_47_U15/hw_img_resize_udiv_44ns_44ns_44_47_div_U/remd_tmp_reg[42]_i_3/CO[3]
                         net (fo=1, unplaced)         0.000     7.415    Resize_0_1080_1920_1080_1920_U0/grp_Resize_opr_linear_0_1080_1920_1080_1920_s_fu_49/hw_img_resize_udiv_44ns_44ns_44_47_U15/hw_img_resize_udiv_44ns_44ns_44_47_div_U/n_0_remd_tmp_reg[42]_i_3
                         CARRY4 (Prop_carry4_CI_O[0])
                                                      0.232     7.647 r  Resize_0_1080_1920_1080_1920_U0/grp_Resize_opr_linear_0_1080_1920_1080_1920_s_fu_49/hw_img_resize_udiv_44ns_44ns_44_47_U15/hw_img_resize_udiv_44ns_44ns_44_47_div_U/remd_tmp_reg[42]_i_2/O[0]
                         net (fo=44, unplaced)        0.885     8.532    Resize_0_1080_1920_1080_1920_U0/grp_Resize_opr_linear_0_1080_1920_1080_1920_s_fu_49/hw_img_resize_udiv_44ns_44ns_44_47_U15/hw_img_resize_udiv_44ns_44ns_44_47_div_U/p_0_in
                         LUT5 (Prop_lut5_I0_O)        0.295     8.827 r  Resize_0_1080_1920_1080_1920_U0/grp_Resize_opr_linear_0_1080_1920_1080_1920_s_fu_49/hw_img_resize_udiv_44ns_44ns_44_47_U15/hw_img_resize_udiv_44ns_44ns_44_47_div_U/remd_tmp[0]_i_1/O
                         net (fo=1, unplaced)         0.334     9.161    Resize_0_1080_1920_1080_1920_U0/grp_Resize_opr_linear_0_1080_1920_1080_1920_s_fu_49/hw_img_resize_udiv_44ns_44ns_44_47_U15/hw_img_resize_udiv_44ns_44ns_44_47_div_U/n_0_remd_tmp[0]_i_1
                         FDRE                                         r  Resize_0_1080_1920_1080_1920_U0/grp_Resize_opr_linear_0_1080_1920_1080_1920_s_fu_49/hw_img_resize_udiv_44ns_44ns_44_47_U15/hw_img_resize_udiv_44ns_44ns_44_47_div_U/remd_tmp_reg[0]/D
  -------------------------------------------------------------------    -------------------

                         (clock CLK rise edge)       10.000    10.000 r  
                                                      0.000    10.000 r  ap_clk
                         net (fo=7066, unset)         0.924    10.924    Resize_0_1080_1920_1080_1920_U0/grp_Resize_opr_linear_0_1080_1920_1080_1920_s_fu_49/hw_img_resize_udiv_44ns_44ns_44_47_U15/hw_img_resize_udiv_44ns_44ns_44_47_div_U/ap_clk
                                                                      r  Resize_0_1080_1920_1080_1920_U0/grp_Resize_opr_linear_0_1080_1920_1080_1920_s_fu_49/hw_img_resize_udiv_44ns_44ns_44_47_U15/hw_img_resize_udiv_44ns_44ns_44_47_div_U/remd_tmp_reg[0]/C
                         clock pessimism              0.000    10.924    
                         clock uncertainty           -0.035    10.889    
                         FDRE (Setup_fdre_C_D)       -0.016    10.873    Resize_0_1080_1920_1080_1920_U0/grp_Resize_opr_linear_0_1080_1920_1080_1920_s_fu_49/hw_img_resize_udiv_44ns_44ns_44_47_U15/hw_img_resize_udiv_44ns_44ns_44_47_div_U/remd_tmp_reg[0]
  -------------------------------------------------------------------
                         required time                         10.873    
                         arrival time                          -9.161    
  -------------------------------------------------------------------
                         slack                                  1.712    




