Copyright 1986-1999, 2001-2013 Xilinx, Inc. All Rights Reserved.
------------------------------------------------------------------------------------------
| Tool Version : Vivado v.2013.4 (lin64) Build 353583 Mon Dec  9 17:26:26 MST 2013
| Date         : Fri Jan  2 01:12:07 2015
| Host         : scrooge.sce.ntu.edu.sg running 64-bit Ubuntu 12.04.5 LTS
| Command      : report_utilization -file ./report/hw_intensity_map_utilization_synth.rpt
| Design       : hw_intensity_map
| Device       : xc7z020
| Design State : Synthesized
------------------------------------------------------------------------------------------

Utilization Design Information

Table of Contents
-----------------
1. Slice Logic
2. Memory
3. DSP
4. IO and GTX Specific
5. Clocking
6. Specific Feature
7. Primitives
8. Black Boxes
9. Instantiated Netlists

1. Slice Logic
--------------

+----------------------------+-------+-------+-----------+--------+
|          Site Type         |  Used | Loced | Available |  Util% |
+----------------------------+-------+-------+-----------+--------+
| Slice LUTs*                | 72686 |     0 |     53200 | 136.62 |
|   LUT as Logic             | 70300 |     0 |     53200 | 132.14 |
|   LUT as Memory            |  2386 |     0 |     17400 |  13.71 |
|     LUT as Distributed RAM |     0 |     0 |           |        |
|     LUT as Shift Register  |  2386 |     0 |           |        |
| Slice Registers            | 70265 |     0 |    106400 |  66.03 |
|   Register as Flip Flop    | 70265 |     0 |    106400 |  66.03 |
|   Register as Latch        |     0 |     0 |    106400 |   0.00 |
| F7 Muxes                   |   216 |     0 |     26600 |   0.81 |
| F8 Muxes                   |     6 |     0 |     13300 |   0.04 |
+----------------------------+-------+-------+-----------+--------+
* Warning! The Final LUT count, after physical optimizations and full implementation, is typically lower. Run opt_design after synthesis for a more realistic count.


2. Memory
---------

+-------------------+------+-------+-----------+-------+
|     Site Type     | Used | Loced | Available | Util% |
+-------------------+------+-------+-----------+-------+
| Block RAM Tile    | 10.5 |     0 |       140 |  7.14 |
|   RAMB36/FIFO*    |    0 |     0 |       140 |  0.00 |
|   RAMB18          |   21 |     0 |       280 |  7.50 |
|     RAMB18E1 only |   21 |       |           |       |
+-------------------+------+-------+-----------+-------+
* Note: Each Block RAM Tile only has one FIFO logic available and therefore can accommodate only one FIFO36E1 or one FIFO18E1. However, if a FIFO18E1 occupies a Block RAM Tile, that tile can still accommodate a RAMB18E1


3. DSP
------

+----------------+------+-------+-----------+--------+
|    Site Type   | Used | Loced | Available |  Util% |
+----------------+------+-------+-----------+--------+
| DSPs           |  232 |     0 |       220 | 105.45 |
|   DSP48E1 only |  232 |       |           |        |
+----------------+------+-------+-----------+--------+


4. IO and GTX Specific
----------------------

+-----------------------------+------+-------+-----------+-------+
|          Site Type          | Used | Loced | Available | Util% |
+-----------------------------+------+-------+-----------+-------+
| Bonded IOB                  |    0 |     0 |       200 |  0.00 |
| Bonded IPADs                |    0 |     0 |         2 |  0.00 |
| Bonded IOPADs               |    0 |     0 |       130 |  0.00 |
| IBUFGDS                     |    0 |     0 |       192 |  0.00 |
| IDELAYCTRL                  |    0 |     0 |         4 |  0.00 |
| IN_FIFO                     |    0 |     0 |        16 |  0.00 |
| OUT_FIFO                    |    0 |     0 |        16 |  0.00 |
| PHASER_REF                  |    0 |     0 |         4 |  0.00 |
| PHY_CONTROL                 |    0 |     0 |         4 |  0.00 |
| PHASER_OUT/PHASER_OUT_PHY   |    0 |     0 |        16 |  0.00 |
| PHASER_IN/PHASER_IN_PHY     |    0 |     0 |        16 |  0.00 |
| IDELAYE2/IDELAYE2_FINEDELAY |    0 |     0 |       200 |  0.00 |
| ODELAYE2/ODELAYE2_FINEDELAY |    0 |     0 |         0 |  0.00 |
| IBUFDS_GTE2                 |    0 |     0 |         0 |  0.00 |
| ILOGIC                      |    0 |     0 |       200 |  0.00 |
| OLOGIC                      |    0 |     0 |       200 |  0.00 |
+-----------------------------+------+-------+-----------+-------+


5. Clocking
-----------

+------------+------+-------+-----------+-------+
|  Site Type | Used | Loced | Available | Util% |
+------------+------+-------+-----------+-------+
| BUFGCTRL   |    0 |     0 |        32 |  0.00 |
| BUFIO      |    0 |     0 |        16 |  0.00 |
| MMCME2_ADV |    0 |     0 |         4 |  0.00 |
| PLLE2_ADV  |    0 |     0 |         4 |  0.00 |
| BUFMRCE    |    0 |     0 |         8 |  0.00 |
| BUFHCE     |    0 |     0 |        72 |  0.00 |
| BUFR       |    0 |     0 |        16 |  0.00 |
+------------+------+-------+-----------+-------+


6. Specific Feature
-------------------

+-------------+------+-------+-----------+-------+
|  Site Type  | Used | Loced | Available | Util% |
+-------------+------+-------+-----------+-------+
| BSCANE2     |    0 |     0 |         4 |  0.00 |
| CAPTUREE2   |    0 |     0 |         1 |  0.00 |
| DNA_PORT    |    0 |     0 |         1 |  0.00 |
| EFUSE_USR   |    0 |     0 |         1 |  0.00 |
| FRAME_ECCE2 |    0 |     0 |         1 |  0.00 |
| ICAPE2      |    0 |     0 |         2 |  0.00 |
| STARTUPE2   |    0 |     0 |         1 |  0.00 |
| XADC        |    0 |     0 |         1 |  0.00 |
+-------------+------+-------+-----------+-------+


7. Primitives
-------------

+----------+-------+
| Ref Name |  Used |
+----------+-------+
| FDRE     | 69327 |
| LUT2     | 25405 |
| LUT3     | 23437 |
| CARRY4   |  8725 |
| LUT6     |  7627 |
| LUT1     |  6292 |
| LUT5     |  6017 |
| LUT4     |  5388 |
| SRL16E   |  2251 |
| FDSE     |   938 |
| DSP48E1  |   232 |
| MUXF7    |   216 |
| SRLC32E  |   135 |
| RAMB18E1 |    21 |
| MUXF8    |     6 |
+----------+-------+


8. Black Boxes
--------------

+----------+------+
| Ref Name | Used |
+----------+------+


9. Instantiated Netlists
------------------------

+-------------------------------------+------+
|               Ref Name              | Used |
+-------------------------------------+------+
| hw_intensity_map_ap_sitodp_4_no_dsp |    6 |
| hw_intensity_map_ap_dmul_4_max_dsp  |    6 |
| hw_intensity_map_ap_dadd_3_full_dsp |    6 |
+-------------------------------------+------+


