Copyright 1986-1999, 2001-2013 Xilinx, Inc. All Rights Reserved.
-----------------------------------------------------------------------------------
| Tool Version : Vivado v.2013.4 (lin64) Build 353583 Mon Dec  9 17:26:26 MST 2013
| Date         : Fri Jan  2 01:12:24 2015
| Host         : scrooge.sce.ntu.edu.sg running 64-bit Ubuntu 12.04.5 LTS
| Command      : report_timing -file ./report/hw_intensity_map_timing_synth.rpt
| Design       : hw_intensity_map
| Device       : 7z020-clg484
| Speed File   : -1  PRODUCTION 1.09 2013-11-22
-----------------------------------------------------------------------------------

Timing Report

Slack (VIOLATED) :        -0.052ns  (required time - arrival time)
  Source:                 AddWeighted_1080_1920_0_0_0_double_1_U0/F2_reg_1031_reg[2]/C
                            (rising edge-triggered cell FDRE clocked by CLK  {rise@0.000ns fall@5.000ns period=10.000ns})
  Destination:            AddWeighted_1080_1920_0_0_0_double_1_U0/p_Val2_43_reg_1059_reg[5]/D
                            (rising edge-triggered cell FDRE clocked by CLK  {rise@0.000ns fall@5.000ns period=10.000ns})
  Path Group:             CLK
  Path Type:              Setup (Max at Slow Process Corner)
  Requirement:            10.000ns  (CLK rise@10.000ns - CLK rise@0.000ns)
  Data Path Delay:        9.827ns  (logic 2.385ns (24.270%)  route 7.442ns (75.730%))
  Logic Levels:           8  (CARRY4=1 LUT5=4 LUT6=3)
  Clock Path Skew:        -0.174ns (DCD - SCD + CPR)
    Destination Clock Delay (DCD):    1.563ns = ( 11.563 - 10.000 ) 
    Source Clock Delay      (SCD):    1.737ns
    Clock Pessimism Removal (CPR):    0.000ns
  Clock Uncertainty:      0.035ns  ((TSJ^2 + TIJ^2)^1/2 + DJ) / 2 + PE
    Total System Jitter     (TSJ):    0.071ns
    Total Input Jitter      (TIJ):    0.000ns
    Discrete Jitter          (DJ):    0.000ns
    Phase Error              (PE):    0.000ns

    Location             Delay type                Incr(ns)  Path(ns)    Netlist Resource(s)
  -------------------------------------------------------------------    -------------------
                         (clock CLK rise edge)        0.000     0.000 r  
                                                      0.000     0.000 r  ap_clk
                         net (fo=72924, unset)        1.737     1.737    AddWeighted_1080_1920_0_0_0_double_1_U0/ap_clk
                                                                      r  AddWeighted_1080_1920_0_0_0_double_1_U0/F2_reg_1031_reg[2]/C
  -------------------------------------------------------------------    -------------------
                         FDRE (Prop_fdre_C_Q)         0.518     2.255 r  AddWeighted_1080_1920_0_0_0_double_1_U0/F2_reg_1031_reg[2]/Q
                         net (fo=9, unplaced)         1.006     3.261    AddWeighted_1080_1920_0_0_0_double_1_U0/F2_reg_1031[2]
                         LUT5 (Prop_lut5_I0_O)        0.321     3.582 r  AddWeighted_1080_1920_0_0_0_double_1_U0/sel_tmp7_i_reg_1080[0]_i_5/O
                         net (fo=1, unplaced)         0.000     3.582    AddWeighted_1080_1920_0_0_0_double_1_U0/n_61091_sel_tmp7_i_reg_1080[0]_i_5
                         CARRY4 (Prop_carry4_DI[0]_CO[2])
                                                      0.616     4.198 r  AddWeighted_1080_1920_0_0_0_double_1_U0/sel_tmp7_i_reg_1080_reg[0]_i_2/CO[2]
                         net (fo=35, unplaced)        0.978     5.176    AddWeighted_1080_1920_0_0_0_double_1_U0/p_0_in29_in
                         LUT5 (Prop_lut5_I2_O)        0.310     5.486 r  AddWeighted_1080_1920_0_0_0_double_1_U0/tmp_133_reg_1069[0]_i_20/O
                         net (fo=13, unplaced)        1.161     6.647    AddWeighted_1080_1920_0_0_0_double_1_U0/n_61091_tmp_133_reg_1069[0]_i_20
                         LUT6 (Prop_lut6_I1_O)        0.124     6.771 r  AddWeighted_1080_1920_0_0_0_double_1_U0/tmp_133_reg_1069[0]_i_52/O
                         net (fo=1, unplaced)         0.964     7.735    AddWeighted_1080_1920_0_0_0_double_1_U0/n_61091_tmp_133_reg_1069[0]_i_52
                         LUT6 (Prop_lut6_I0_O)        0.124     7.859 r  AddWeighted_1080_1920_0_0_0_double_1_U0/tmp_133_reg_1069[0]_i_26/O
                         net (fo=1, unplaced)         0.964     8.823    AddWeighted_1080_1920_0_0_0_double_1_U0/n_61091_tmp_133_reg_1069[0]_i_26
                         LUT6 (Prop_lut6_I0_O)        0.124     8.947 r  AddWeighted_1080_1920_0_0_0_double_1_U0/tmp_133_reg_1069[0]_i_12/O
                         net (fo=2, unplaced)         1.122    10.069    AddWeighted_1080_1920_0_0_0_double_1_U0/n_61091_tmp_133_reg_1069[0]_i_12
                         LUT5 (Prop_lut5_I0_O)        0.124    10.193 r  AddWeighted_1080_1920_0_0_0_double_1_U0/p_Val2_43_reg_1059[6]_i_2/O
                         net (fo=2, unplaced)         0.913    11.106    AddWeighted_1080_1920_0_0_0_double_1_U0/n_61091_p_Val2_43_reg_1059[6]_i_2
                         LUT5 (Prop_lut5_I2_O)        0.124    11.230 r  AddWeighted_1080_1920_0_0_0_double_1_U0/p_Val2_43_reg_1059[5]_i_1/O
                         net (fo=1, unplaced)         0.334    11.564    AddWeighted_1080_1920_0_0_0_double_1_U0/p_Val2_43_fu_446_p3[5]
                         FDRE                                         r  AddWeighted_1080_1920_0_0_0_double_1_U0/p_Val2_43_reg_1059_reg[5]/D
  -------------------------------------------------------------------    -------------------

                         (clock CLK rise edge)       10.000    10.000 r  
                                                      0.000    10.000 r  ap_clk
                         net (fo=72924, unset)        1.563    11.563    AddWeighted_1080_1920_0_0_0_double_1_U0/ap_clk
                                                                      r  AddWeighted_1080_1920_0_0_0_double_1_U0/p_Val2_43_reg_1059_reg[5]/C
                         clock pessimism              0.000    11.563    
                         clock uncertainty           -0.035    11.528    
                         FDRE (Setup_fdre_C_D)       -0.016    11.512    AddWeighted_1080_1920_0_0_0_double_1_U0/p_Val2_43_reg_1059_reg[5]
  -------------------------------------------------------------------
                         required time                         11.512    
                         arrival time                         -11.564    
  -------------------------------------------------------------------
                         slack                                 -0.052    




